,ft,st,conf
0,"I've written a simple com.sun.net.httpserver.HttpServer program that runs on a non-server mac. When I visit http://localhost:39600/test in a web browser, it gives me the correct response: ""Here's my response!"". 
","It turns out that Server Admin doesn't manage specific ports. The GUI for the Snow Leopard firewall only lets you open specific applications (and thereby their associated port numbers). To open a specific port, you have to dig in to Terminal and type sudo ipfw add <rulenumber> allow tcp from any to any dst-port <portnum> where <rulenumber> is between 00001 and 65535 and <portnum> is as well (there are reserved port numbers...you can see which ones are with sudo ipfw list.
",0.08806230872869492
1,"One possible approach would be to arbitrarily pick something like two 12-core Opterons and 96 GB RAM then decide that sounds good,
","As far as power, I'm thinking two PSUs (beyond wattage, is there anything specific I should look for?) and a $100 or $200 UPS for good measure.
",0.09028856456279755
2,"I have a RHEL5 Amazon cloud instance that I need to image to another instance in order to setup a test environment for some upcoming patching I'm doing. The server to be imaged is a production server.
","The answer is to order additional memory for the cloud instance, and then make a ramdisk. Then dd your local disk to the ramdisk and do what you need to with the image to get it off of the server.
",0.05316292867064476
3,"Also your get implementation could be slightly faster using _cache.TryGetValue so that it only has to access _cache once.
","There are never ""holes"" in the LRU list because you only ever remove the oldest item (the class doesn't support removing arbitrary items). So a ""circular list buffer"" or double-ended queue is possibly the container that you want to use instead of List. I don't think there is such a container built-in to .NET, though you could implement one yourself. An adequate alternative is LinkedList, adequate because its operations are O(1).",0.09549421817064285
4,"Sure you can do it, but Amanda and Bacula have the kinks worked out mostly. Some write a list of files and their checksums in the first blocks, the tar archive after that. Tar can do multi-volume archives out-of-the-box (checked with GNU tar 1.29).
","Can these systems take advantage of the bar codes I have on the tapes given that the hardware reads the bar codes?
",0.021631037816405296
5,"I want to be able to rotate a subset of tapes out of the autoloader for offsite backup. Will this totally flummox Amanda or Bacula or cause administration headaches?
","I strongly suggest to try out all the solutions, and do not be afraid to look at old documentation, a lot is still valid. And do restores!
",0.05899104103446007
6,"Now I could create a custom RPM for everything and remove certain dependencies from the spec file however I would like to avoid this if possible. Does anyone have any proposed functional ways to manage this sort of environment?
","For those of you who aren't familiar with cPanel - it adds a few things to yum exclude such as perl*, ruby* and so forth. This causes issues with me being able to bootstrap monitoring on a new server via Puppet (well via the Package type) due to a bunch of conflicts with installing via Yum.
",0.05248800292611122
7,"What I am trying to say is, being a data scientist, a small part of the job is cleaning data, running model and making pretty pictures.  The real challenge is asking the why question.  Why does this work?  Why does the model perform poorly?  Why does the model perform well?  Why is this feature important?  
","Student Phase  When you're learning about machine learning algorithms, I think it is a really good idea to implement toy examples.  I find this process helps with finding what you understood well and what you did not understand as well as you thought.  It's doing this work where you'll find deeper understanding of how the algorithm really works and different internal choices you have to make.
",0.09567039459943771
8,"I would amend Mafuba's suggestion just a bit: rather than delete your profile then recreate a new one, I would try to copy it first. If copying does not work, I would do a create-then-delete rather than a delete-then-create, just in case you need to get some information from it.
","Thinking that since I was having an issue with doing something with Outlook the second time, I thought that if I tried the control panel right after a fresh boot, it might open, and it did!
",0.040384773164987564
9,"I've heard of ""Unclocking"" (not unlocking) 3g devices which use tdma. For direct wireless access. I saw an unclocked ZTE phone once in 2009. I can't find a phreaking thing online about all this. I imagine that this could disrupt qos of emergency services and it probably violates fcc rules. 
","you could become a CLEC competitive line exchange carrier, and set up an authoritative domain name server (with bind9 maybe) like an n-root?
",0.05861293897032738
10,"My problem is how can I fix this problem? If I boot windows xp in safe mode with network, the banking site is working fine. But when I boot normal again, the problem is back. I run antivirus on my computer and it found nothing. Hopefully someone can help me as I am stuck with this problem for a few days now.
","http:// online.bdo.com.ph/sso/logina26b.html?josso_back_to=http:// online.bdo.com.ph/sso/josso_security_check%26josso_partnerapp_host=online.bdo.com.ph%26josso_partnerapp_ctx=/sso
",0.050011374056339264
11,"The site's security certificate is not trusted! You attempted to reach online.bdo.com.ph, but the server presented a certificate issued by an entity that is not trusted by your computer's operating system. This may mean that the server has generated its own security credentials, which Chrome cannot rely on for identity information, or an attacker may be trying to intercept your communications. You should not proceed, especially if you have never seen this warning before for this site. (proceed anyway) (back to safety)
","and it keeps on generating sso nonstop unless i click stop on it. If I go to the main page of the bank which is http://www.bdo.com.ph and then I click on the upper right side of the page ""online banking login"" , and then ""bdo online banking"" , it will redirect to this site :
",0.0838068351149559
12,"At this point, the negligible performance gains are not worth the random error it may throw while loading data. OLE DB Destination is rock solid, provides excellent performance and doesn't suffer from the infernal errors you can run into with the SQL Server Destination. Both components can store data into SQL Server and as a bonus, the OLE DB Destination allows you to run your SSIS package from any server.
","No problem, they rewrite and realize they can add an explicit ORDER BY in the source, and mark it as such, and eliminate two SORTs but they still have to pay the penalty for the join. ",0.0854129046201706
13,"The way I have it now is the Player moves across the screen, and when they reach the far right edge, you reset them to the far left of the screen (basically teleport them back to the left side...). And if they're at the far left edge, keep resetting them to the far left side (to simulate a wall)
","I'm creating a 2D game similar to Mario. What is a best practice to allow the character to move through the level given a limited screen size?
",0.030209412798285484
14,"I didn't think you could run 3D graphics (Direct3D) through a virtual-machine so I'm impressed it runs at all, but I've always understood anything to do with graphics through a VM is likely to be flaky.
","My question is, should it work or are we hampered by the special drivers and should not advise users to do this? It sounds like a support nightmare if we endorse it.
",0.04427314177155495
15,"You can check the caches on the DNS resolvers provided by your own ISP. It is likely one of them has an old record cached, and the rest have the new record.
","All DNS records I can find for edmhunters.com are indicating it is hosted on ns{1,2,3}.digitalocean.com and those have A records pointing to 107.170.189.169.
",0.048137471079826355
16,"All DNS records I can find for edmhunters.com are indicating it is hosted on ns{1,2,3}.digitalocean.com and those have A records pointing to 107.170.189.169.
","Since the DNS records look correct, it may be a caching issue. The NS records from the TLD servers have a 48 hour TTL. So if has been less than 48 hours, since you updated the records, you may just have to wait.
",0.08275099843740463
17,"Also, as i wanted to what exactly can be copyrighted, i got clear idea of what and how to copyright: http://www.copyright.in/register_copyright_deposit.html
","Copyright is the best way to protect the code/art assests.It clearly protects the game code and taking even a portion of the game code and using it in some other context is a copyright violation if it is not your material. However, it is more the code as a whole that is protected and not simply the individual pieces. If one line of code is identical in two separate games, there is unlikely to be a violation. If entire chunks are the same throughout, there could be a possible lawsuit.",0.029232682660222054
18,"Irssi is pretty well configurable, so I assume that there's probably some way to do this.  The documentation is not the most approachable, though, and I clearly haven't found the right keywords to Google for.  Can anybody tell me what configuration setting I should be looking for?
","I guess it's happened to most of us at least once: you flip to a channel, think ""aw, how dull, nobody's said anything for hours..."" — and then realize that it's because you forgot to scroll back down after reading an old conversation.  *facepalm*",0.04707686975598335
19,"Is there an Outlook method, add-on/plugin or something that duplicates the functionality of Thunderbird Quick Folder Move extension? It is on my most missed features of Thunderbird, which I can no longer use at my work place.
","When activated the quick move extension pops up a dialog where you find the destination by typing. Matching suggestions are shown immediately after each character press. It's very fast and fluid. It can be fired by context menu (r-click) or shortcut key.
",0.047646570950746536
20,"That process might be as simple as ""call so and so and create accounts"" or may involve opening help desk tickets or may be done by an enterprise application. That isn't really relevant -- what is relevant is that you need to handle this stuff consistently and have a pre-arranged plan.
","We have a few user identity stores and a delegated admin model. Essentially, a designated rep  in each business unit can access the provisioning system and setup user accounts. A ticket is opened with IT support to assign/deassign PCs, and a ticket with another organization takes care of ID/building/parking access cards.",0.08927309513092041
21,"""Tom account logged in, a few minutes later that were gradually increasing data flows over eth0 and to the sdb3 disk; perhaps he was copying in a data set, probably from the Netapps over on Lan B ... then we see a huge spike in memory page allocations, but process creation remained nominal until this paging started; that's when the interrupts and run queue went through the room, and brought the system into OOM thrashing.  Tom, you ignoramus!  You have a memory leak in foobar.pl!"" :)
","However, for your purposes you can use sar -A just as a starting point.  You find the bits that you need and then you call sar with various arguments to capture each table you want to parse, filter, and graph separately.  There are options to render the output in a more machine friendly format, as well.",0.06777864694595337
22,"It doesn't seem that there's any way to upload a file with one command like this on OS X. Instead, you have to open the tftp program and execute a series of commands that looks something like this:
","So far I have not had any luck in figuring out how to write a script to do this, although I don't have a ton of experience with Unix shell scripting. Has anyone tried to do anything similar and come up with any solutions?",0.08431325852870941
23,"Delta's are a very very rare thing in networking in games as far as I can tell. They almost always run into syncing issues. Most of the time when you see a person do some funny sliding or the like, its not because a delta system is being used and then corrected at intervals. In general its because of a momentary packet loss of some kind, even if its just delayed data, and then a forced correction on top of the predictive side of the networking. So I actually suggest that you look into manners of packet compression as opposed to delta networking.
","I do want to once again caution against using a 'just send critical events' sort of system.. Every time I have dealt with a system like that it has caused a significant amount of effort to try and keep in sync and at the end of the day has always been changed into an exact system.
",0.09458615630865097
24,"Certificates work as a hierarchy of trust.  If I trust a certificate, I trust all the certificates the trusted certificate has signed.  However, I need to trust something in order to start this chain.
","Browsers normally contain certificates from certificate authorities the browser supplier thinks you should trust (like Verisign, for example), and browsers normally flag certificates that don't inherit from one of those pre-approved certificates as untrusted.
",0.0527266189455986
25,"The ports on the server might be open, but are they exposed to your source IP or network segment?  They might be open only for localhost.  Disable the firewall on the server for a minute to see if that helps you find where the blocking is occurring.
","One other random potential issue:  Sometimes my apps just don't work on Win7x64 unless they're running as Admin.  Even if I launch them under an account that has admin privs, I still occasionally have to right click on them and run them as administrator.  Perhaps...
",0.08529579639434814
26,"One other random potential issue:  Sometimes my apps just don't work on Win7x64 unless they're running as Admin.  Even if I launch them under an account that has admin privs, I still occasionally have to right click on them and run them as administrator.  Perhaps...
",You said the ports on the server were open.  I'm assuming you have tested this.  Try a netstat -an on the server just to be certain that it's actually listening on those ports.,0.09493175894021988
27,"L2 switch could only work in Layer 2--Data Link Layer of OSI model. But Layer 3 switch has some L3 functions just like a traditional router--static routing, routing protocol like OSPF and ECMP, multicast routing protocol and DHCP relay.
","I want to buy a new switch to replace an old one which is unmanaged and I see that there are smart and managed switches.. what it the difference? 
",0.07571728527545929
28,"I want to buy a new switch to replace an old one which is unmanaged and I see that there are smart and managed switches.. what it the difference? 
","Smart switch can be managed by Web interface, Telnet, SSH and SNMP. It supports far more L2 features and better QoS than easy smart switch, additionally, smart switch supports more advanced functions like ACL and Spanning Tree protocol, if you want to support a solution for one small company or colleague with a lower price, the Smart switch is the indispensable device.
",0.01715410314500332
29,"When you want to do more fancy effects, you will probably want to move to WebGL, because the performance of stuff like blending is going to be quite variable (i.e. poor) for 2d canvas.
","I wrote such a game and found that it performed very well on most desktop browser (yes - even Internet Explorer).
",0.04236337170004845
30,"I've got domain1.co.uk registered in plesk, but the domain has not been set up with any nameservers or A records, so it is unreachable from the web.
","Frame forwarding doesnt work - because you get errors saying ""domain1.co.uk cannot be found"" in your browser - i need a server solution to spoof it all.",0.032505497336387634
31,"the tmousex and tmousey are the transformed x and y positions of the mouse. This does not account for rotation - the reversal of the transformation will have to go into the character code (rotation of camera and character will just be added after the atan2 code).
","I have scenario where there are several items on a the context stack and I need to get an x, y coordinate relative to the canvas itself.
",0.045576971024274826
32,"I wouldn't reset that flag.  If you did, which you probably can't, there's no guarantee that you'll be able to restore the diffs or log backups if you need to restore, and I can pretty much guarantee that changing that status flag is completely unsupported.
","Also that hotfix doesn't apply to you.  According to the error you posted you are running 9.00.3042.00 while that hotfix is for below 9.0.1550.0 as it brings you up to 9.0.1550.0.
",0.06167197600007057
33,"If none of the options suit your needs, then I guess you could try using a replication server, but I'd try those before, as they are a bit less PITA then a replication :-).
","2) ""I was wondering if there is a ""best way"" to setup a replication server so we can run the queries on it without locking the main db server"".
",0.09384153038263321
34,"2) ""I was wondering if there is a ""best way"" to setup a replication server so we can run the queries on it without locking the main db server"".
","You could move the blocking queries there and get rid of some of the problems (release blocking, but this will increase space usage, so need to put in balance). But this means you'll need to change some part of the application that accesses the db to redirect the big calls to the snapshot. I guess that read committed snapshot enabled at db level will be easiest to verify.
",0.07811017334461212
35,"The idea here is that test5 is shorter than test10 and will be sorted first. But test10 is alphabetically before test20 so that also is sorted first, giving you test5, test10, test20 which looks correct.
","I have a MySQL table which contains product SKUs among other things. PHP powers importing data into this database, managing data through a control panel, displaying the information on the front-end, etc. (For clarity, this is a Magento site.) On the front-end, I need to be able to list SKUs in natural sorting order, however MySQL does not have a natsort method the way PHP does.
",0.05090893432497978
36,"I think mod_limitipconn seems like it would fix your current issue but since this is a problem to begin with, I think there might be an issue with the code logic you have running on the site.
","I am a bit confused as to why this ""attacker"" would want to download the file more than once. However there are a few ways to limit this:
",0.06894312798976898
37,"By my previous comment, I don't mean to be funny. I have worked in IT for several years and have relevant qualifications, I work for a large company that deals with huge infrastructure and desktop issues and I am always one to keep going on a problem until I find a solution. But this one, has got the better of me my friend. And it will save me more time to just rebuild the damn things that waste more time and man hours on it. If you want to still troubleshoot, I am happy to run through these things ive found, but its complex so ill try my best to explain it. Otherwise, good luck! I hope you find a solution!
","I've never seen an instance where a WiFi utility stops the built in windows connection status box to not display at all. At very least it tells you that it's being managed by another service, similar to Antivirus.
",0.06063138693571091
38,"The question I have is how to do it in VMWare properly.  Do I create a new network (in Inventory, Networking) as a new vNetwork Distributed Switch?  If so, do I choose the 4.1 version?
","http://kb.vmware.com/selfservice/microsites/search.do?cmd=displayKC&docType=kc&externalId=1003806&sliceId=1&docTypeID=DT_KB_1_1&dialogID=395552540&stateId=1%200%20395566747
",0.0907665491104126
39,"The router in my apartment gets no public address from the ISP, so home laptop and home servers are both behind double-NAT, no way I can do port forwarding or something because I cannot control ISP devices. For some reason, the home server is always connected to a VPN server with public address. This way I can ssh -A into the VPN server, and ssh -A into home server and finally ssh into my home laptop.
","This could be indefinitely chained. You can keep chaining host D, host E, etc as long as your hosts have fast connections. There is no need to do ssh -L or ssh -D hop by hop manually and connect through non-standard ports. I can now do ssh c.example.org directly from anywhere as long as I can connect to a.example.org. Of course other SSH-based protocols like Rsync, SCP, SFTP, etc are automatically supported.
",0.04472345486283302
40,"I use Guake console which probably uses GNOME Terminal, I don't know if GNOME has this feature already.
","There are scripts that will color output based on regular expressions (i.e. ""make anything that matches 'dog' red"") but these must be invoked with pipes - for example: ""> cat myfile | color dog red"" and this is useless for anything interactive.
",0.05323883891105652
41,"I know many programs use color - (vim, ack, color-ls to name a few) but there are still many cases where you're stuck with black and white.
","What I'm looking for is something that hooks the terminal emulator (or an terminal that actually does this) and colors anything that matches a given regex, independent of the shell or program i'm currently using. If this works with ncurses as well that would be awesome. I have too many monochrome programs and it would be great if I could specify a list of keywords to highlight/color when they appear or are typed.
",0.09938368946313858
42,"If you want to import the game in Eclipse to see how it works for yourself, you can download both the sleep and timer based projects from here.
","I'm a beginning game developer and I'm trying to make a game in Java, but for some reason, it keeps stuttering at random times. I believe what I'm experiencing could also be called microstuttering. 
",0.01722201704978943
43,"At the top left of your references table, hover your mouse over your first reference. Look for a little box with cross arrows in it, just to the left.
","This took me an hour of fiddling so I hope I have now achieved my life's ambition and made the world a better place! ;-) 
",0.06227446720004082
44,"There is nothing in the logs to indicate what might be the issue, and I've put logging statements in my doGet, doPost, etc. methods and they don't appear in the logs, so I don't think it's getting as far as my servlet.
",the former URL was simply being handled by the existing version rather than throwing a not found error or giving a meaningful description.,0.06697072833776474
45,"I've thought of a rather minimal set of gameplay elements, i.e. objects you can interact with, to evaluate the core mechanic.
","The game has a story (as opposed to many other puzzle games). The thing is, I just have a basic idea of what it should be, nothing detailed and nothing's written down.
",0.09404785931110382
46,"To work on the work computers desktop you have to use either built in solutions like RDP or additional software like VNC (free) or Teamviewer or AnyDesk (commercial)
","In fact, your two requirements are basically the same: an external device needs to ""dial-in"" to your VPN-server who's reachable at the public (static) IP of one of your DSL-Lines.
",0.06400381028652191
47,"OK, in the newest version of VirtualBox the VBoxManage command is clonehd rather than clonevdi, but it works fine. Now I have two Windows XPs running. The problem is:
","2) Windows XP's firewall has a draconian default setting so the machines can't even ping each other. You have to go to the firewall configuration and enable things.
",0.052199989557266235
48,"There are plenty roles in Gamedev. business, each role splits at least into a dozen, if you want to work at some company as a game developer here are some roles you can pick:
","It is the perfect engine when it comes to MMO Develpment. You do not have to handle the server architecture; everything is done in the Herocloud. In order to work with it, you have to buy a work station for at least ($100/year) or 25 CCU workstation for ($400/life time).
",0.06900161504745483
49,"Anyone know how to make a web shortcut that looks and operates just like any of the other shortcuts on the taskbar?
","There is a workaround that pretty much solves the problem - create a new folder somewhere safe - create the shortcut to the website in the new folder - right click the taskbar and select toolbars - new toolbar - then browse to the folder you created and select it as the new toolbar. The contents of the folder will now appear on the taskbar as shortcuts. You need to drag it from the right hand end of the taskbar into the middle - turn off show titles and show text and make the icon large. I'd call this a 75% solution.
",0.06613285094499588
50,"I think the reason is because you have not enough data in your tables, so SQL Server does not chooses the BEST plan, it chooses Good Enough plan to execute your query.
","Now we have 10mln data in #a, 8mln in #b and 6mln in #c. If I run the original query without any hints I get merge joins as expected.
",0.08832548558712006
51,"After upload is complete, open OneDrive in your browser then create a new folder there- doing this will make that folder appear on your computer as well, Now go to 'oneDrive'---> 'Preference'-->'Choose folders' and uncheck this newly created folder(just this folder so you can use onedrive as usual), Now go back to browser and transfer your uploaded photos to this folder...
","I want to do exactly the same with my photos and personal videos too, although i use crash plan aswell but i became paranoid after loosing some photos accidentally, so more straightforward way to do this in OneDrive is-[I use a mac]
",0.05615212395787239
52,"I want to do exactly the same with my photos and personal videos too, although i use crash plan aswell but i became paranoid after loosing some photos accidentally, so more straightforward way to do this in OneDrive is-[I use a mac]
","Put the photos you want to back up on OneDrive in the pictures folder as usual(all setting being default) and wait for the photos to be uploaded.
",0.053104110062122345
53,"When I install in legacy mode, I cannot get the grubloader to appear. I can look at my partition tables and see that space has been taken up by the installation, but the actual grubloader doesn't appear when I start the computer and there's no option to boot into it. 
","I've read that you can't really install Linux properly in legacy mode if your windows is in UEFI, and it is, but whenever I boot into UEFI mode it just boots into windows instead.",0.0943421795964241
54,"I'm doing a project to keep an eye on our competitor's facebook information update. My manager asked for report of analysis of one of our competitors.I think that's sentiment analysis.
","If you don't find any api that provides sentiment analysis for facebook posts data, I think that will be a great solution. Scraping post is a little tricky.
",0.08321995288133621
55,"If you go into your Chrome directory, it should be %HOMEPATH%\AppData\Local\Google\Chrome\User Data\Default if you're in the ""Default"" session, you should see the files Current Tabs, Current Session, Last Tabs, and Last Session
","I have some simple bat scripts that I use to easily restore, copy current, copy last, and make some backups",0.057240698486566544
56,"-RH/Centos/SL 6.2 is built with kernel ~2.6.x where the Ubuntu 11.10 LiveDVD has a 3.0.x kernel. Might point to driver availability at time of kernel build.
","I've downloaded Fedora 16 but hadn't burned to disc and tried it before turning off EVERY bios setting and laboriously turning them on a couple at a time and rebooting to see if it would work...
",0.08308231085538864
57,"From what it sounds like, You had opened it on a different network, left it open and joined another network. The actual data open on the phone was retrieved on a different network.  Unless the page got refreshed, or you loaded more explicit material while on the company network you should be fine.  They can't see what is already open, they can only see what was opened. The explicit data you saw on your phone was already downloaded to your phone and you are seeing a local copy of it.
","When I block wireless users in corporate networks, I am never able to determine who that user is unless the device has a hostname configured (such as Joe's iPhone).  The best I could do is block the MAC address, look at the AP in which the device is connected to, and walk around that area to see if I can spot anything.",0.06475162506103516
58,"Note: The backup is done by hardware sending each sector write operation to a historic remote storage server, so you can get the state at a given milisencond ot datetime... such info sent to remote server is the real data that is writted on disk, so it is cyphered, not plain... it is like cloning hard disk plates info.
","P.D.: i am not authorised jey to reveal raid controller name, but can be founded some test (with censored parts) videos on google and youtube, i do not know if links are admit on this forum, and i do not want to be seen as a vendor.
",0.08079558610916138
59,"Consider this in the context of a wireless network, with no encryption and no authentication (typical of free public wireless hotspots).
","I know there are a lot of solutions out there for mitigating DHCP starvation attacks. But wouldn't a really simple solution be to just set the DHCP address pool to 1.1.1.1 - 254.254.254.254 (or some other really large pool) so that the malicious entity cannot starve the entire pool within a practical time frame? Why is this not done?
",0.08482793718576431
60,"I was able to implement all of this with precompiled packages on Ubuntu 9.04 server (even dspam), so extensive compiling should not be needed, just patience while configuring.
","If manual whitelisting floats your boat then these two approaches drastically reduce your spam (catches more than 80% of spam with almost no errors) even before it's queued in your server, which is a major benefit. The downside is that you need to pay attention to your logs and whitelist misbehaving (but legit) servers as soon as you notice them, or your users will probably complain.
",0.07917652279138565
61,"However, I wouldn't recommend this approach. Qmail is too antiquated for the task really. Eliminating backscatter requires a kludgy hack that needs too much human intervention, it doesn't do greylisting and handles SPF both for incoming mail and forwards very badly.
","Our current mail server is Qmail, with clamav filtering viruses on that machine, and another machine (dual Xeon CPUs with 1.5 Gig of RAM) doing nothing but running Spamassassin. But none of that happens until after a special Qmail plugin checks the IP against bl.spamcop.net and the XBL at Spamhaus. 
",0.05262323096394539
62,"For Black Friday, I snagged a Mediasonic HFR2-SU3S2 RAID Bays USB 3.0 & eSATA PRORAID Box 4 Bay Raid Enclosure with a USB 3.0 PCIe card. The design of this one is slightly more cumbersome than Sans Digital, so the drives that I put in there are usually ones I want to stay in there. Sans Digital ones make it super easy to hot swap HDDs. 
","In my humble opinion the time spent on figuring out a solution could have been used to find compatible drivers for what you needed.  
",0.08395878970623016
63,"Feel like I am saying this all day long - Try a Ubuntu live cd as this has support for Bluetooth and you should be able to see independently from Windows if it works or not.
","Most Bluetooth devices for laptops are done through a internal USB interface, so make sure that all your USB root hubs are up to date (installed latest chipset drivers for your laptop). If this is not up to date, it is possible that the card is not being detected.
",0.07440172135829926
64,"We have a currently have a set up that use Zabbix. We have it configured to send email when a switch, server, printer is offline. We also monitor our UPS to send shutdown command on all our server, esxi, vm, switches, management console, router, etc when the power level are too low after power failure.
","Almost every recent servers have interface that allows you to connect to the server remotely to manage bios, booting option and remote started.  With HP it's ILO:",0.0835721343755722
65,"I am surprised that I didn't see anyone name VMware View specifically.  I think View is one of the best VDI solutions out there.
","Move towards user-centric computing and transform traditional stationary desktops into untethered stateless workspaces available from anywhere and at anytime. VMware View modernizes desktops and applications by moving them into the cloud and delivering them as a managed service. Processes are automated and efficient, security is increased and the total cost of desktop ownership is reduced by 50%. End users get a rich, consistent and high performance desktop experience from any qualified device whether in the office or on the go."" 
",0.061711180955171585
66,"When shutting down Windows sometime it will fail and give you errors, this is because Windows ultimately does not work with Apple's driver very well (fusion drive or other hardware). No worry, just power down by holding the power button.
","The first thing to do is to find a USB flash drive. Many people including me failed because we try to use SD card. This won't work because SD card is too advance for what we are doing. It will load the install program, but after loading it becomes all Windows, and then it will fail the installation. So what we need is an old fashion flash drive. I tried using SD card adapter, it failed too. It might have something to do with the type of adapter I have. But to be safe, we should USE FLASH DRIVE.
",0.09065712988376617
67,"I am using PhpStorm2017.3 and to make it work, I had to delete the folder .IntelliJIdea2017.3 from the following location: 
","For your case, you will have to dig in to the correct folder i.e. the folder ""admin"" above could be a different folder in your case, so I highly recommend you check it or you may not find the .IntelliJIdea2017.3 folder in it.
",0.07544644176959991
68,"The other thing which DOES work is to ask your recipients to add you to their whitelist - it is painful for signups, of course, but it is the first thing we ask new members to do.
","Not sure if that will make a difference to Gmail as, like any email provider, they change the rules frequently to stay ahead of the spammers but it did work for us with Hotmail.
",0.0840093120932579
69,"There is no option that ""turns on errorlog encryption"", so you'll need to use encryption at a lower layer, such as bitlocker or similar disk encryption utilities.
","Anyone that can log into the server can potentially read memory. Some permissions might not be locked down and debuggers can be attached. Other avenues also exist which I won't get into here but if they have access, it's already too late.
",0.07544703781604767
70,"Disclaimer: I have ZERO financial or personal interest in this software. I just love it for this purpose.
","While you cannot stop them from hitting CTRL+ALT+DEL, if you turn off logging off, shutting down, and restarting, the only option available that is not grayed out is the Task Manager, but it doesn't work...it just brings them back to the desktop. In other words, with your application running, they can get to one thing, but there is no where to go from there...the only option brings them back to your program.
",0.07400757819414139
71,"This question is really interesting to me. I have made a deal with a music producer who later became a close friend of mine. We agreed on 7% of total income from sold games.
","If you're sourcing your stuff from a commercial website, then you're most likely looking at a single payment for the rights of a specific track. About $600-$1500 is probably reasonable. A lot of licenses also scale up. So something like $300 for a game with 3000 copies distributed but $1000 for a game with 100,000 copies distributed.
",0.03892863541841507
72,"I simply cannot figure out what configuration file, or what command needs to be run and from where on the system to set this up to be able to log sessions. 
","This format is compatible with the format used by the standard UNIX script command, and can be replayed using scriptreplay (if installed). For example, to replay a typescript called ""NAME"", you would run:
",0.04714800789952278
73,"I cannot seem to find any documentation on how to set this up so that I can view previous sessions.  
","The full, raw text content of SSH sessions, including timing information, can be recorded automatically to a specified directory. This recording, also known as a ""typescript"", will be written to two files within the directory specified by typescript-path: NAME, which contains the raw text data, and NAME.timing, which contains timing information, where NAME is the value provided for the typescript-name parameter.",0.09677758067846298
74," Just observe your red HDD activity LED - it lights more than stays off (your HDD works really hard).
","A server I supervise has 12GB. Instead of buying new system (64-2008 plus CALs!), I could assign 8GB for guest - virtual 32-2003 and try testing software RAMdisks. However I don't trust them as they seem to be hacks and I don't like taking chance on stability.
",0.033500462770462036
75,"A server I supervise has 12GB. Instead of buying new system (64-2008 plus CALs!), I could assign 8GB for guest - virtual 32-2003 and try testing software RAMdisks. However I don't trust them as they seem to be hacks and I don't like taking chance on stability.
","Now imagine all of these operations redirected to EXTRA RAMdisk (extra RAM, beyound the system's operational memory area which remains the same in size - maximum).
",0.07636110484600067
76,"Not commenting on main method as they are usually just a ""runner"" for what is essentially the guts on the class.
","Don't recheck in the loop whether or not st.hasMoreTokens()... it's harder to read.  Instead, have a String result = null; which you're looking for, and after the loop completes if it is still null, then decide you didn't find anything.  This way you're checking st's elements in one place, and looping over them.
",0.0845428928732872
